DE Annotations & Downstream applications
…
We can use some of the tidyverse functions we’ve
encountered previously to rename the external_gene_name
column to symbol and to move it into the second column
position? Hint: Because of the order of the packages we may have loaded,
we’ll use dplyr::rename() and dplyr::select()
instead of just the select() function. We can discuss this
in a moment.

results_deficient_vs_control_annotated = results_deficient_vs_control_annotated %>%
    dplyr::rename('symbol' = 'external_gene_name') %>%
    dplyr::select(id, symbol, everything())
results_deficient_vs_control_annotated

# A tibble: 16,249 × 9
   id          symbol baseM…¹ log2F…² lfcSE   stat pvalue  padj call 
   <chr>       <chr>    <dbl>   <dbl> <dbl>  <dbl>  <dbl> <dbl> <fct>
 1 ENSMUSG000… Gnai3   1.49e3   0.298 0.210  1.42   0.157 0.869 NS   
 2 ENSMUSG000… Cdc45   1.75e3   0.226 0.177  1.28   0.200 0.903 NS   
 3 ENSMUSG000… H19     2.15e3   0.458 0.765  0.599  0.549 0.995 NS   
 4 ENSMUSG000… Scml2   2.49e1   0.579 0.561  1.03   0.302 0.951 NS   
 5 ENSMUSG000… Apoh    7.78e0  -0.899 1.55  -0.579  0.562 0.998 NS   
 6 ENSMUSG000… Narf    1.97e4  -0.174 0.204 -0.855  0.392 0.982 NS   
 7 ENSMUSG000… Klf6    9.51e2  -0.145 0.222 -0.652  0.515 0.992 NS   
 8 ENSMUSG000… Scmh1   7.27e2   0.265 0.275  0.964  0.335 0.966 NS   
 9 ENSMUSG000… Cox5a   1.43e3  -0.272 0.212 -1.28   0.199 0.903 NS   
10 ENSMUSG000… Tbx2    1.52e1   0.542 0.687  0.788  0.430 0.985 NS   
# … with 16,239 more rows, and abbreviated variable names ¹​baseMean,
#   ²​log2FoldChange
…
